Convenience Functions to Help Researchers Elucidate Patterns in Their Data • elucidate
…
dupes() can tell you how many rows are duplicated based on one or more variables (default is all of them).

library(elucidate)
#> Loading required package: ggplot2
#> 
#> Attaching package: 'elucidate'
#> The following object is masked from 'package:base':
#> 
#>     mode

#list any number of variables to use when searching for duplicates after the
#data argument
dupes(pdata, d) 
#> Duplicated rows detected! 12000 of 12000 rows in the input data have multiple copies.
#> # A tibble: 12,000 x 11
#>       id d          g     high_low even     y1    y2    x1    x2    x3 n_copies
#>    <int> <date>     <fct> <chr>    <lgl> <dbl> <dbl> <int> <int> <int>    <int>
#>  1     1 2019-01-01 e     high     FALSE  144. 112.     86   199   261     1000
#>  2     2 2019-01-01 c     low      TRUE   262.  91.8    88   104   224     1000
#>  3     3 2019-01-01 d     high     FALSE  224. 120.     29   192   224     1000
#>  4     4 2019-01-01 c     high     TRUE   262. 102.     77   151   254     1000
#>  5     5 2019-01-01 a     low      FALSE  167.  91.6    75   186   258     1000
#>  6     6 2019-01-01 a     low      TRUE   163.  83.6    39   152   293     1000
#>  7     7 2019-01-01 d     low      FALSE  247.  98.9    88   177   202     1000
#>  8     8 2019-01-01 b     high     TRUE   189. 102.     79   163   217     1000
#>  9     9 2019-01-01 e     high     FALSE  156. 110.      4   136   220     1000
#> 10    10 2019-01-01 c     low      TRUE   248.  95.9    63   113   213     1000
#> # ... with 11,990 more rows
…
