Check the number of copies/duplicated rows in a data frame. — copies • elucidate
…
    See also

    duplicated,
get_dupes, distinct,
unique, dupes

    Author

    Craig P. Hutton, craig.hutton@gov.bc.ca

    Examples

# check based on one variable & return all rows with copy indicators
copies(pdata, g, filter = "all") #the default
#> # A tibble: 12,000 × 12
#>       id d          g     high_low even     y1    y2    x1    x2    x3
#>    <int> <date>     <fct> <chr>    <lgl> <dbl> <dbl> <int> <int> <int>
#>  1     1 2008-01-01 e     high     FALSE 106.  118.     59   116   248
#>  2     2 2008-01-01 c     high     TRUE   96.5 107.      5   101   238
#>  3     3 2008-01-01 d     low      FALSE  99.3  96.2    71   111   250
#>  4     4 2008-01-01 c     high     TRUE  109.  102.     60   130   287
#>  5     5 2008-01-01 a     high     FALSE  99.7 113.     96   196   284
#>  6     6 2008-01-01 a     high     TRUE  102.  114.     19   163   206
#>  7     7 2008-01-01 d     low      FALSE  91.0  87.9    77   133   201
#>  8     8 2008-01-01 b     low      TRUE  109.   98.7    74   191   249
#>  9     9 2008-01-01 e     low      FALSE  99.8  89.8    92   106   277
#> 10    10 2008-01-01 c     low      TRUE  122.   83.6     4   134   209
#> # … with 11,990 more rows, and 2 more variables: copy_number <int>,
#> #   n_copies <int>

# check based on one variable & return duplicated rows only
copies(pdata, g, filter = "dupes")
#> Duplicated rows detected! 12000 of 12000 rows in the input data have multiple copies.
#> # A tibble: 12,000 × 11
#>       id d          g     high_low even     y1    y2    x1    x2    x3 n_copies
#>    <int> <date>     <fct> <chr>    <lgl> <dbl> <dbl> <int> <int> <int>    <int>
#>  1     1 2008-01-01 e     high     FALSE 106.  118.     59   116   248     2352
#>  2     2 2008-01-01 c     high     TRUE   96.5 107.      5   101   238     2220
#>  3     3 2008-01-01 d     low      FALSE  99.3  96.2    71   111   250     2376
#>  4     4 2008-01-01 c     high     TRUE  109.  102.     60   130   287     2220
#>  5     5 2008-01-01 a     high     FALSE  99.7 113.     96   196   284     2592
#>  6     6 2008-01-01 a     high     TRUE  102.  114.     19   163   206     2592
#>  7     7 2008-01-01 d     low      FALSE  91.0  87.9    77   133   201     2376
#>  8     8 2008-01-01 b     low      TRUE  109.   98.7    74   191   249     2460
#>  9     9 2008-01-01 e     low      FALSE  99.8  89.8    92   106   277     2352
#> 10    10 2008-01-01 c     low      TRUE  122.   83.6     4   134   209     2220
#> # … with 11,990 more rows
…
