Check the number of duplicated rows in a data frame. — dupes • elucidate
…
    See also

    copies, get_dupes

    Author

    Craig P. Hutton, craig.hutton@gov.bc.ca

    Examples

# check for duplicates based on one variable, "g" in this case
dupes(pdata, g)
#> Duplicated rows detected! 12000 of 12000 rows in the input data have multiple copies.
#> # A tibble: 12,000 × 11
#>       id d          g     high_low even     y1    y2    x1    x2    x3 n_copies
#>    <int> <date>     <fct> <chr>    <lgl> <dbl> <dbl> <int> <int> <int>    <int>
#>  1     5 2008-01-01 a     high     FALSE  99.7 113.     96   196   284     2592
#>  2     6 2008-01-01 a     high     TRUE  102.  114.     19   163   206     2592
#>  3    11 2008-01-01 a     high     FALSE  93.8 102.     56   142   285     2592
#>  4    12 2008-01-01 a     low      TRUE   96.5  92.4   100   111   277     2592
#>  5    13 2008-01-01 a     low      FALSE  86.6  86.0    69   119   228     2592
#>  6    14 2008-01-01 a     high     TRUE   86.5 105.     44   182   290     2592
#>  7    15 2008-01-01 a     high     FALSE  99.6 101.     91   124   294     2592
#>  8    19 2008-01-01 a     high     FALSE  99.6 108.      3   139   275     2592
#>  9    21 2008-01-01 a     high     FALSE  95.6 103.     33   180   231     2592
#> 10    22 2008-01-01 a     high     TRUE   86.8 105.     92   117   251     2592
#> # … with 11,990 more rows
…
