Introduction to elucidate • elucidate
…
Checking the most/least common unique values of each column in the data.

dupes()

dupes() can tell you how many rows are duplicated based on one or more variables (default is all of them). We care about this because duplicated records mislead you into thinking you have a larger sample size than you really do. Variables to use when searching for duplicates are simply specified using their names via the special ellipsis (...) argument after the “data” argument. I initially used the janitor::get_dupes() function for this purpose, but developed elucidate::dupes() because I found janitor::get_dupes() to be prohibitively slow when working with large administrative datasets (> 1 million rows). You can see some timed comparisons between them here.

library(elucidate)

#list any number of variables to use when searching for duplicates after the
#data argument
dupes(pdata, d) 

## Duplicated rows detected! 12000 of 12000 rows in the input data have multiple copies.

## # A tibble: 12,000 × 11
##       id d          g     high_low even     y1    y2    x1    x2    x3 n_copies
##    <int> <date>     <fct> <chr>    <lgl> <dbl> <dbl> <int> <int> <int>    <int>
##  1     1 2019-01-01 e     high     FALSE  144. 112.     86   199   261     1000
##  2     2 2019-01-01 c     low      TRUE   262.  91.8    88   104   224     1000
##  3     3 2019-01-01 d     high     FALSE  224. 120.     29   192   224     1000
##  4     4 2019-01-01 c     high     TRUE   262. 102.     77   151   254     1000
##  5     5 2019-01-01 a     low      FALSE  167.  91.6    75   186   258     1000
##  6     6 2019-01-01 a     low      TRUE   163.  83.6    39   152   293     1000
##  7     7 2019-01-01 d     low      FALSE  247.  98.9    88   177   202     1000
##  8     8 2019-01-01 b     high     TRUE   189. 102.     79   163   217     1000
##  9     9 2019-01-01 e     high     FALSE  156. 110.      4   136   220     1000
## 10    10 2019-01-01 c     low      TRUE   248.  95.9    63   113   213     1000
## # … with 11,990 more rows
…
## # A tibble: 0 × 11
## # … with 11 variables: id <int>, d <date>, g <fct>, high_low <chr>, even <lgl>,
## #   y1 <dbl>, y2 <dbl>, x1 <int>, x2 <int>, x3 <int>, n_copies <int>

In addition to checking for row duplicates upon importing the data into R, I strongly recommend checking again after joining one data frame to another, e.g. with the dplyr::*_join() functions.

elucidate also provides a copies() function that allows you to extract the first, last, or truly unique rows (i.e. those that had no duplicates in the original data) from a data frame using a “filter” argument that functions similarly to dplyr::filter() in that it specifies what is being retained.

Extract the first copy of each set of duplicated rows with filter = "first". For example, to get the earliest record for each id in pdata (which is already sorted by increasing date), we could use:

#in this example I'm "piping" pdata into the first "data" argument of the
#copies() function
copies(pdata, id, filter = "first")

## # A tibble: 1,000 × 10
##       id d          g     high_low even     y1    y2    x1    x2    x3
##    <int> <date>     <fct> <chr>    <lgl> <dbl> <dbl> <int> <int> <int>
##  1     1 2008-01-01 e     high     FALSE 106.  118.     59   116   248
##  2     2 2008-01-01 c     high     TRUE   96.5 107.      5   101   238
##  3     3 2008-01-01 d     low      FALSE  99.3  96.2    71   111   250
##  4     4 2008-01-01 c     high     TRUE  109.  102.     60   130   287
##  5     5 2008-01-01 a     high     FALSE  99.7 113.     96   196   284
##  6     6 2008-01-01 a     high     TRUE  102.  114.     19   163   206
##  7     7 2008-01-01 d     low      FALSE  91.0  87.9    77   133   201
##  8     8 2008-01-01 b     low      TRUE  109.   98.7    74   191   249
##  9     9 2008-01-01 e     low      FALSE  99.8  89.8    92   106   277
## 10    10 2008-01-01 c     low      TRUE  122.   83.6     4   134   209
## # … with 990 more rows

To get the last record for each id instead, we just change the filter argument to “last”:

copies(pdata, id, filter = "last")

## # A tibble: 1,000 × 10
##       id d          g     high_low even     y1    y2    x1    x2    x3
##    <int> <date>     <fct> <chr>    <lgl> <dbl> <dbl> <int> <int> <int>
##  1     1 2019-01-01 e     high     FALSE  144. 112.     86   199   261
##  2     2 2019-01-01 c     low      TRUE   262.  91.8    88   104   224
##  3     3 2019-01-01 d     high     FALSE  224. 120.     29   192   224
##  4     4 2019-01-01 c     high     TRUE   262. 102.     77   151   254
##  5     5 2019-01-01 a     low      FALSE  167.  91.6    75   186   258
##  6     6 2019-01-01 a     low      TRUE   163.  83.6    39   152   293
##  7     7 2019-01-01 d     low      FALSE  247.  98.9    88   177   202
##  8     8 2019-01-01 b     high     TRUE   189. 102.     79   163   217
##  9     9 2019-01-01 e     high     FALSE  156. 110.      4   136   220
## 10    10 2019-01-01 c     low      TRUE   248.  95.9    63   113   213
## # … with 990 more rows
…
## # A tibble: 5 × 15
##   g     cases     n    na  p_na  mean    sd    se    p0   p25   p50   p75  p100
##   <fct> <int> <int> <int> <dbl> <dbl> <dbl> <dbl> <dbl> <dbl> <dbl> <dbl> <dbl>
## 1 e      2352  2352     0     0  135.  18.6 0.383  75.1  123.  137.  148.  187.
## 2 c      2220  2220     0     0  177.  57.0 1.21   77.0  127.  165.  232.  289.
## 3 d      2376  2376     0     0  174.  43.9 0.901  69.2  138.  175.  214.  268.
## 4 a      2592  2592     0     0  134.  25.8 0.507  75.9  112.  133.  156.  202.
## 5 b      2460  2460     0     0  152.  37.8 0.763  74.4  118.  147.  188.  247.
## # … with 2 more variables: skew <dbl>, kurt <dbl>

This grouping variable specification is passed to the special ellipsis argument, allowing you to split on as many grouping variables as you like, e.g. to split the description of numeric column “y1” by both factor column “g” and date column “d”, I just add “d” to the function call.

pdata |> describe(y1, g, d)

## # A tibble: 60 × 16
##    g     d          cases     n    na  p_na  mean    sd    se    p0   p25   p50
##    <fct> <date>     <int> <int> <int> <dbl> <dbl> <dbl> <dbl> <dbl> <dbl> <dbl>
##  1 e     2008-01-01   196   196     0     0 100.   9.37 0.669  75.1  94.6 100. 
##  2 c     2008-01-01   185   185     0     0 101.  10.5  0.769  77.0  93.0 100. 
##  3 d     2008-01-01   198   198     0     0 101.  10.6  0.751  69.2  94.6 101. 
##  4 a     2008-01-01   216   216     0     0  99.8  9.38 0.638  75.9  93.0  99.8
##  5 b     2008-01-01   205   205     0     0 101.  10.7  0.745  74.4  94.4 101. 
##  6 e     2009-01-01   196   196     0     0 120.  10.2  0.73   97.0 114.  119. 
##  7 c     2009-01-01   185   185     0     0 116.  11.5  0.849  82.8 108.  115. 
##  8 d     2009-01-01   198   198     0     0 120.   9.29 0.66   92.5 112.  121. 
##  9 a     2009-01-01   216   216     0     0 110.  11.7  0.794  83.4 101.  109. 
## 10 b     2009-01-01   205   205     0     0 115.   9.86 0.689  91.2 108.  116. 
## # … with 50 more rows, and 4 more variables: p75 <dbl>, p100 <dbl>, skew <dbl>,
## #   kurt <dbl>
…
## # A tibble: 1 × 3
##   median lower upper
##    <dbl> <dbl> <dbl>
## 1   146.  135.  151.

describe_ci_all() extends describe_ci() to provide a CI for the chosen summary statistic for each numeric variable in a data frame. For example, to get the 95% CI for the mean of each numeric variable in pdata, for each group in “g”, we can use:

pdata |> 
  dplyr::select(-id) |> #drop the id column
  describe_ci_all(g, ci_type = "norm")

## # A tibble: 25 × 5
##    variable g      mean lower upper
##    <chr>    <fct> <dbl> <dbl> <dbl>
##  1 x1       e      50.7  49.5  51.8
##  2 x1       c      49.9  48.7  51.1
##  3 x1       d      50.5  49.4  51.7
##  4 x1       a      51.3  50.2  52.4
##  5 x1       b      50.0  48.8  51.1
##  6 x2       e     151.  150.  152. 
##  7 x2       c     150.  149.  151. 
##  8 x2       d     151.  150.  152. 
##  9 x2       a     151.  150.  153. 
## 10 x2       b     150.  149.  151. 
## # … with 15 more rows
…
Much nicer!

Rapidly converting one vector into another (i.e. vectorized re-coding) with translate(). For example, you can use it to recode a column in a data frame within a call to dplyr::mutate():

pdata |> 
  dplyr::mutate(new_g = translate(y = g, 
                              old = c("a", "b", "c", "d", "e"),
                              new = c("group A", "group B", "group C", "group D", "group E"))) |> 
  dplyr::relocate(new_g, .after = g)

## # A tibble: 12,000 × 11
##       id d          g     new_g   high_low even     y1    y2    x1    x2    x3
##    <int> <date>     <fct> <chr>   <chr>    <lgl> <dbl> <dbl> <int> <int> <int>
##  1     1 2008-01-01 e     group E high     FALSE 106.  118.     59   116   248
##  2     2 2008-01-01 c     group C high     TRUE   96.5 107.      5   101   238
##  3     3 2008-01-01 d     group D low      FALSE  99.3  96.2    71   111   250
##  4     4 2008-01-01 c     group C high     TRUE  109.  102.     60   130   287
##  5     5 2008-01-01 a     group A high     FALSE  99.7 113.     96   196   284
##  6     6 2008-01-01 a     group A high     TRUE  102.  114.     19   163   206
##  7     7 2008-01-01 d     group D low      FALSE  91.0  87.9    77   133   201
##  8     8 2008-01-01 b     group B low      TRUE  109.   98.7    74   191   249
##  9     9 2008-01-01 e     group E low      FALSE  99.8  89.8    92   106   277
## 10    10 2008-01-01 c     group C low      TRUE  122.   83.6     4   134   209
## # … with 11,990 more rows
…
#%ni% checks for non-matching values 
c("a", "b", "a", "c", "d") %ni% "a" 

## [1] FALSE  TRUE FALSE  TRUE  TRUE

c("a", "b", "a", "c", "d") %ni% "z"

## [1] TRUE TRUE TRUE TRUE TRUE

#using %in% for subsetting with dplyr::filter()
pdata |> 
  #extract only records for groups "a" or "b"
  dplyr::filter(g %in% c("a", "b")) 

## # A tibble: 5,052 × 10
##       id d          g     high_low even     y1    y2    x1    x2    x3
##    <int> <date>     <fct> <chr>    <lgl> <dbl> <dbl> <int> <int> <int>
##  1     5 2008-01-01 a     high     FALSE  99.7 113.     96   196   284
##  2     6 2008-01-01 a     high     TRUE  102.  114.     19   163   206
##  3     8 2008-01-01 b     low      TRUE  109.   98.7    74   191   249
##  4    11 2008-01-01 a     high     FALSE  93.8 102.     56   142   285
##  5    12 2008-01-01 a     low      TRUE   96.5  92.4   100   111   277
##  6    13 2008-01-01 a     low      FALSE  86.6  86.0    69   119   228
##  7    14 2008-01-01 a     high     TRUE   86.5 105.     44   182   290
##  8    15 2008-01-01 a     high     FALSE  99.6 101.     91   124   294
##  9    16 2008-01-01 b     low      TRUE  112.   99.8    35   179   295
## 10    18 2008-01-01 b     low      TRUE  103.   86.2    27   187   210
## # … with 5,042 more rows

#using %ni% for subsetting with dplyr::filter()
pdata |> 
  #extract records for groups other than "a" or "b"
  dplyr::filter(g %ni% c("a", "b")) 

## # A tibble: 6,948 × 10
##       id d          g     high_low even     y1    y2    x1    x2    x3
##    <int> <date>     <fct> <chr>    <lgl> <dbl> <dbl> <int> <int> <int>
##  1     1 2008-01-01 e     high     FALSE 106.  118.     59   116   248
##  2     2 2008-01-01 c     high     TRUE   96.5 107.      5   101   238
##  3     3 2008-01-01 d     low      FALSE  99.3  96.2    71   111   250
##  4     4 2008-01-01 c     high     TRUE  109.  102.     60   130   287
##  5     7 2008-01-01 d     low      FALSE  91.0  87.9    77   133   201
##  6     9 2008-01-01 e     low      FALSE  99.8  89.8    92   106   277
##  7    10 2008-01-01 c     low      TRUE  122.   83.6     4   134   209
##  8    17 2008-01-01 c     low      FALSE  91.1  88.1    27   111   218
##  9    20 2008-01-01 c     low      TRUE  109.   82.7    71   146   267
## 10    23 2008-01-01 e     low      FALSE  96.5  95.5    89   151   289
## # … with 6,938 more rows
…
